{
    "general": {
        "play_button_text": "Play",
        "game_text": "Game",
        "padding": "4px",
        "coin-a": "http://playcent.com/protected/project-picker/2146e3e60bff474392d42cf1b1588f3b",
        "coin-b": "http://playcent.com/protected/project-picker/7d0aa61294f3416f943258c7e6c76b2a",
        "coin-c": "http://playcent.com/protected/project-picker/00fa2801f7a74374a4de895e3c81617d",
        "coin-d": "http://playcent.com/protected/project-picker/6e80087f40074cb0b254afba93442b90",
        "coin-e": "http://playcent.com/protected/project-picker/7cbfb2448af947a49ec0d8120a58906e",
        "coin-f": "http://playcent.com/protected/project-picker/950fd18129f64654935be5fed86493e3"
    }
}